analysis-missing_migrants
…
Rows: 13296 Columns: 24
── Column specification ────────────────────────────────────────────────────────
Delimiter: ","
chr  (14): Main ID, Incident ID, Incident Type, Region of Incident, Reported...
dbl   (9): Incident year, Number of Dead, Minimum Estimated Number of Missin...
date  (1): Website Date

ℹ Use `spec()` to retrieve the full column specification for this data.
ℹ Specify the column types or set `show_col_types = FALSE` to quiet this message.

Code

missingMG

# A tibble: 13,296 × 24
   `Main ID`     `Incident ID` `Incident Type` `Region of Incid…` `Website Date`
   <chr>         <chr>         <chr>           <chr>              <date>        
 1 2014.MMP00001 2014.MMP00001 Incident        North America      2014-01-06    
 2 2014.MMP00002 2014.MMP00002 Incident        North America      2014-01-12    
 3 2014.MMP00003 2014.MMP00003 Incident        North America      2014-01-14    
 4 2014.MMP00004 2014.MMP00004 Incident        North America      2014-01-16    
 5 2014.MMP00005 2014.MMP00005 Incident        Europe             2014-01-16    
 6 2014.MMP00006 2014.MMP00006 Incident        North America      2014-01-17    
 7 2014.MMP00007 2014.MMP00007 Incident        Mediterranean      2014-01-19    
 8 2014.MMP00008 2014.MMP00008 Incident        North America      2014-01-22    
 9 2014.MMP00009 2014.MMP00009 Incident        North America      2014-01-24    
10 2014.MMP00010 2014.MMP00010 Incident        North America      2014-01-24    
# … with 13,286 more rows, and 19 more variables: `Incident year` <dbl>,
#   `Reported Month` <chr>, `Number of Dead` <dbl>,
#   `Minimum Estimated Number of Missing` <dbl>,
#   `Total Number of Dead and Missing` <dbl>, `Number of Survivors` <dbl>,
#   `Number of Females` <dbl>, `Number of Males` <dbl>,
#   `Number of Children` <dbl>, `Region of Origin` <chr>,
#   `Cause of Death` <chr>, `Migration route` <chr>, …
…
  # Auto named with `tibble::lst()`: 
  tibble::lst(mean, median)

  # Using lambdas
  list(~ mean(., trim = .2), ~ median(., na.rm = TRUE))
This warning is displayed once every 8 hours.
Call `lifecycle::last_lifecycle_warnings()` to see where this warning was generated.

Code

missingMG

# A tibble: 13,296 × 24
   `Main ID`     `Incident ID` `Incident Type` `Region of Incid…` `Website Date`
   <chr>         <chr>         <chr>           <chr>              <date>        
 1 2014.MMP00001 2014.MMP00001 Incident        North America      2014-01-06    
 2 2014.MMP00002 2014.MMP00002 Incident        North America      2014-01-12    
 3 2014.MMP00003 2014.MMP00003 Incident        North America      2014-01-14    
 4 2014.MMP00004 2014.MMP00004 Incident        North America      2014-01-16    
 5 2014.MMP00005 2014.MMP00005 Incident        Europe             2014-01-16    
 6 2014.MMP00006 2014.MMP00006 Incident        North America      2014-01-17    
 7 2014.MMP00007 2014.MMP00007 Incident        Mediterranean      2014-01-19    
 8 2014.MMP00008 2014.MMP00008 Incident        North America      2014-01-22    
 9 2014.MMP00009 2014.MMP00009 Incident        North America      2014-01-24    
10 2014.MMP00010 2014.MMP00010 Incident        North America      2014-01-24    
# … with 13,286 more rows, and 19 more variables: `Incident year` <dbl>,
#   `Reported Month` <chr>, `Number of Dead` <dbl>,
#   `Minimum Estimated Number of Missing` <dbl>,
#   `Total Number of Dead and Missing` <dbl>, `Number of Survivors` <dbl>,
#   `Number of Females` <dbl>, `Number of Males` <dbl>,
#   `Number of Children` <dbl>, `Region of Origin` <chr>,
#   `Cause of Death` <chr>, `Migration route` <chr>, …
…
