analysis - human trafficking
…
ct2a <- ct2 %>%
  mutate(citizenship = countrycode(citizenship, origin = 'iso2c',
                                   destination = 'country.name'),
         CountryOfExploitation = countrycode(CountryOfExploitation, origin = 'iso2c',
                                             destination = 'country.name')) %>%
  drop_na(citizenship, CountryOfExploitation)

ct2a

# A tibble: 28,796 × 5
   yearOfRegistration gender ageBroad citizenship CountryOfExploitation
   <chr>              <chr>  <chr>    <chr>       <chr>                
 1 2002               Female 18--20   Moldova     Serbia               
 2 2002               Female 18--20   Moldova     Serbia               
 3 2002               Female 18--20   Moldova     Serbia               
 4 2002               Female 18--20   Moldova     Serbia               
 5 2002               Female 18--20   Moldova     Serbia               
 6 2002               Female 18--20   Moldova     Serbia               
 7 2002               Female 18--20   Moldova     Serbia               
 8 2002               Female 18--20   Moldova     Serbia               
 9 2002               Female 18--20   Moldova     Serbia               
10 2002               Female 18--20   Moldova     Serbia               
# … with 28,786 more rows
…
