Demo 360 Quarto analysis
…
Rows: 910 Columns: 4
── Column specification ────────────────────────────────────────────────────────
Delimiter: ","
chr (1): Entity
dbl (3): Year, Carbon Monoxide, Carbon Monoxide (Index)

ℹ Use `spec()` to retrieve the full column specification for this data.
ℹ Specify the column types or set `show_col_types = FALSE` to quiet this message.

Code

names(pollution) <- c("country", "year", "co_tpyr", "co_index")
pollution

# A tibble: 910 × 4
   country    year co_tpyr co_index
   <chr>     <dbl>   <dbl>    <dbl>
 1 Australia  1990    5729     100 
 2 Australia  1991    5747     100.
 3 Australia  1992    5897     103.
 4 Australia  1993    6122     107.
 5 Australia  1994    6263     109.
 6 Australia  1995    6108     107.
 7 Australia  1996    6282     110.
 8 Australia  1997    6298     110.
 9 Australia  1998    5948     104.
10 Australia  1999    5759     101.
# … with 900 more rows
…
